Place,Sex,Name,Event,Division,WeightClassKg,Equipment,BodyweightKg,Best3SquatKg,Best3BenchKg,Best3DeadliftKg,TotalKg,BirthYear
1,M,Hunter Fick,B,R-T3,90,Raw,89.2,,172.5,,172.5,1995
1,M,Dane Kellner,B,R-T3,125+,Raw,144,,77.5,,77.5,1995
1,M,Peter Krause,B,R-O,67.5,Raw,61.1,,82.5,,82.5,1987
1,M,William Moon,B,R-O,100,Raw,98.6,,160,,160,1986
1,M,Sheldon Korth,B,R-O,110,Raw,109.1,,210,,210,1979
2,M,Mike Reynolds,B,R-O,110,Raw,104.4,,70,,70,1981
1,M,Ron Monroe,B,R-M1b,125,Raw,112.3,,175,,175,1966
2,M,Ron Monroe,B,R-M1b,125,Raw,112.3,,175,,175,1966
1,M,Ken Leisinger,B,R-M3a,90,Raw,86.1,,123,,123,1950
2,M,Ken Leisinger,B,R-M3a,90,Raw,86.1,,123,,123,1950
1,M,John Tini,B,R-M3b,82.5,Raw,79.8,,110,,110,1945
1,F,Lydia Anikin,B,R-JR,75,Raw,71.4,,52.5,,52.5,1991
1,F,Angela Simons,B,R-M2a,60,Raw,56.1,,45,,45,1961
DD,M,Peter Saiz,SBD,R-M2b,125,Raw,111.5,,,,,
1,M,Brandon Jepson,SBD,R-T1,75,Raw,71.7,117.5,85,147.5,350,1998
1,M,Alex Anderson,SBD,R-T1,82.5,Raw,77.2,115,97.5,227.5,440,1998
1,M,Chase Davies,SBD,R-T2,82.5,Raw,79.5,125,85,137.5,347.5,1998
1,M,Cooper Brooks,SBD,R-T2,100,Raw,95,205,130,230,565,1997
1,M,Alexander Stoll,SBD,R-T2,110,Raw,102.7,205,127.5,230,562.5,
1,M,Jordan Zenzis,SBD,R-T2,125,Raw,112,170,125,182.5,477.5,
1,M,Christopher Nicolai,SBD,R-T3,125+,Raw,169.6,275,160,245,680,1994
2,M,Christopher Nicolai,SBD,R-T3,125+,Raw,169.6,275,160,245,680,1994
1,M,Joe Rice,SBD,R-JR,82.5,Raw,79.4,185,142.5,232.5,560,1993
1,M,Blaine Hanson,SBD,R-JR,100,Raw,95.9,215,192.5,272.5,680,1991
2,M,Ryan Murphy,SBD,R-JR,100,Raw,91.4,252.5,152.5,265,670,1993
1,M,Alex Taray,SBD,R-JR,110,Raw,101.1,237.5,157.5,232.5,627.5,1993
2,M,Kyle Burggraff,SBD,R-JR,110,Raw,107.3,197.5,165,250,612.5,1991
3,M,Charlie Fernow,SBD,R-JR,110,Raw,102.7,205,147.5,235,587.5,1992
1,M,Christian Gravesen,SBD,R-JR,125,Raw,116.1,227.5,192.5,262.5,682.5,1991
2,M,Brandon Moe,SBD,R-JR,125,Raw,117.5,95,77.5,112.5,285,1993
1,M,Steve Reishus,SBD,R-O,67.5,Raw,67.5,190,100,210,500,1982
1,M,Nick Blixt,SBD,R-O,75,Raw,73,155,112.5,210,477.5,1987
2,M,Dusty Miller,SD,R-O,75,Raw,74.9,200,,250,450,1985
3,M,Sean Kunze,SBD,R-O,75,Raw,69.7,52.5,65,70,187.5,1984
1,M,Joe Carlson,SD,R-O,90,Raw,83.8,185,,222.5,407.5,
1,M,Ben Roehl,SBD,R-O,100,Raw,98.5,230,182.5,287.5,700,
2,M,Michael Melter,SBD,R-O,100,Raw,99.1,217.5,142.5,280,640,1989
3,M,Austin Lind,SBD,R-O,100,Raw,98.3,205,137.5,237.5,580,1988
4,M,Michael Sampson,SBD,R-O,100,Raw,97.2,175,132.5,227.5,535,1981
1,M,Andrew Beckman,SBD,R-O,110,Raw,102.9,270,145,280,695,
2,M,Brandon Tracey,SBD,R-O,110,Raw,107.1,200,130,237.5,567.5,1975
3,M,Andrew Johnson,SBD,R-O,110,Raw,106.2,152.5,130,227.5,510,1983
4,M,Cody Rankenburg,BD,R-O,110,Raw,105.5,,125,190,315,1990
1,M,Ryan Iallonardo,SBD,R-O,125,Raw,110.2,105,72.5,107.5,285,
1,M,Kyle Milnes,SBD,R-O,125+,Raw,138.3,277.5,167.5,302.5,747.5,1978
2,M,Tony Cooper,SBD,R-O,125+,Raw,135.8,277.5,202.5,265,745,1986
3,M,Doug Staley,SBD,R-O,125+,Raw,149,255,165,275,695,1989
4,M,Mike Christie,SBD,R-O,125+,Raw,138,210,147.5,255,612.5,
1,M,Sean Klund,SBD,R-M1a,82.5,Raw,77.1,120,95,125,340,1974
1,M,Blake Hanson,SBD,R-M1a,100,Raw,100,235,135,237.5,607.5,1971
1,M,Steve Born,SBD,R-M1a,110,Raw,109.8,195,142.5,272.5,610,
2,M,Scott Sutherlin,SBD,R-M1a,110,Raw,102.1,192.5,142.5,232.5,567.5,1972
1,M,Peter Ziemann,SBD,R-M1a,125,Raw,123.6,160,135,172.5,467.5,1973
2,M,Christopher Johnson,SBD,R-M1a,125,Raw,113.6,70,77.5,120,267.5,1988
1,M,Cory Martinson,SBD,R-M1b,82.5,Raw,81.4,165,125,207.5,497.5,1968
1,M,Bob Miller,SBD,R-M1b,100,Raw,98.6,227.5,142.5,260,630,1965
2,M,Bob Miller,SBD,R-M1b,100,Raw,98.6,227.5,142.5,260,630,1965
1,M,Jesse Rodriguez,SBD,R-M1b,125,Raw,110.9,192.5,122.5,205,520,1993
2,M,Troy Anderson,BD,R-M1b,125,Raw,125,,137.5,185,322.5,1968
1,M,Callistus Schissel,SBD,R-M1b,125+,Raw,147.1,275,237.5,280,792.5,1969
2,M,Eugene Edberg,SBD,R-M1b,125+,Raw,132.7,232.5,157.5,287.5,677.5,1967
3,M,Kevin Kitzman,SBD,R-M1b,125+,Raw,132.4,205,132.5,227.5,565,1964
1,M,David Ross,BD,R-M2b,125,Raw,114.5,,140,202.5,342.5,1956
1,M,Jerry Shetka,SBD,R-M3b,90,Raw,88.4,170,95,255,520,1948
1,F,Jala Beer,SBD,R-O,52,Raw,51,80,45,110,235,1980
1,F,Tracy Gabrelcik,SBD,R-O,82.5,Raw,79.3,100,55,147.5,302.5,1983
2,F,Morganna Moon,SBD,R-O,82.5,Raw,81.3,102.5,67.5,130,300,1984
1,F,Erin Karels,SBD,R-M1a,67.5,Raw,64.1,92.5,52.5,132.5,277.5,1971
2,F,Erin Zemanovic,SBD,R-M1a,67.5,Raw,65.1,95,57.5,110,262.5,1970
1,F,Lenae Cartwright,SBD,R-M1a,75,Raw,70.2,92.5,77.5,115,285,1973
1,F,Martine Gutsch,SBD,R-M1b,75,Raw,73.9,102.5,67.5,120,290,1968
1,F,Mary Burss,SBD,R-M1b,90+,Raw,92.3,115,62.5,142.5,320,1964
