Place,Name,CyrillicName,Sex,WeightClassKg,BirthYear,BodyweightKg,Best3SquatKg,Best3BenchKg,Best3DeadliftKg,TotalKg,Event,Equipment,Division
1,Marina Slotina,Марина Слотина,F,44,1982,41.05,95,47.5,120,262.5,SBD,Single-ply,Open
2,Anastasiya Motovilova,Анастасия Мотовилова,F,44,1990,40.2,80,40,85,205,SBD,Single-ply,Open
1,Elena Vorobeva,Елена Воробьева,F,48,1978,47.75,120,70,142.5,332.5,SBD,Single-ply,Open
2,Olga Bychkova,Ольга Бычкова,F,48,1966,47.25,120,50,125,295,SBD,Single-ply,Open
1,Irina Sergeeva,Ирина Сергеева,F,52,1987,51.9,140,55,135,330,SBD,Single-ply,Open
2,Ekaterina Krivova,Екатерина Кривова,F,52,1987,50.65,120,57.5,137.5,315,SBD,Single-ply,Open
3,Evgeniya Shakhina,Евгения Шахина,F,52,1988,52,130,60,125,315,SBD,Single-ply,Open
DQ,Anna Mayorova,Анна Майорова,F,52,1991,51,125,62.5,,,SBD,Single-ply,Open
1,Elena Kaneva,Елена Канева,F,56,1980,55.25,160,77.5,160,397.5,SBD,Single-ply,Open
2,Karina Alshevskaya,Карина Альшевская,F,56,1984,55.65,135,75,150,360,SBD,Single-ply,Open
3,Tatyana Mochalova,Татьяна Мочалова,F,56,1988,54.65,130,50,125,305,SBD,Single-ply,Open
1,Stella Vavilova,Стэлла Вавилова,F,60,1987,59,155,82.5,147.5,385,SBD,Single-ply,Open
2,Kseniya Turik,Ксения Турик,F,60,1986,57.6,145,60,160,365,SBD,Single-ply,Open
1,Natalya Kraeva,Наталья Краева,F,67.5,1979,66.4,200,95,195,490,SBD,Single-ply,Open
2,Olga Vorotnikova,Ольга Воротникова,F,67.5,1975,66.7,180,112.5,190,482.5,SBD,Single-ply,Open
3,Viktoriya Bedoidze,Виктория Бедоидзе,F,67.5,1987,67.05,195,90,192.5,477.5,SBD,Single-ply,Open
1,Ulyana Balova,Ульяна Балова,F,75,1981,74,177.5,105,185,467.5,SBD,Single-ply,Open
1,Natalya Payusova,Наталья Паюсова,F,90,1975,89.9,190,140,215,545,SBD,Single-ply,Open
1,Evgeniy Kalabin,Евгений Калабин,M,52,1986,51.4,180,125,195,500,SBD,Single-ply,Open
2,Aleksey Shalunov,Алексей Шалунов,M,52,1985,51.25,180,110,155,445,SBD,Single-ply,Open
3,Evgeniy Nikolaev,Евгений Николаев,M,52,1987,51.1,160,75,177.5,412.5,SBD,Single-ply,Open
1,Alexey Romanov,Алексей Романов,M,56,1981,55.7,230,165,205,600,SBD,Single-ply,Open
2,Oleg Noskov,Олег Носков,M,56,1984,55.95,220,120,215,555,SBD,Single-ply,Open
3,Oleg Vetrov,Олег Ветров,M,56,1986,55.9,180,130,200,510,SBD,Single-ply,Open
4,Sergey Katyshev,Сергей Катышев,M,56,1981,55.9,170,120,205,495,SBD,Single-ply,Open
5,Aleksandr Babarkin,Александр Бабаркин,M,56,1988,55.5,170,100,180,450,SBD,Single-ply,Open
1,Sergey Krylov,Сергей Крылов,M,60,1984,59.7,210,155,190,555,SBD,Single-ply,Open
2,Sergey Maltsev,Сергей Мальцев,M,60,1985,60,190,135,175,500,SBD,Single-ply,Open
3,Yan Tumashevich,Ян Тумашевич,M,60,1985,59.8,185,105,175,465,SBD,Single-ply,Open
1,Dmitriy Panin,Дмитрий Панин,M,67.5,1980,67.2,240,165,235,640,SBD,Single-ply,Open
2,Dmitriy Mayorov,Дмитрий Майоров,M,67.5,1988,67.25,225,165,220,610,SBD,Single-ply,Open
3,Timofey Savin,Тимофей Савин,M,67.5,1985,67.4,240,150,212.5,602.5,SBD,Single-ply,Open
4,Artur Belous,Артур Белоус,M,67.5,1985,66.3,222.5,155,202.5,580,SBD,Single-ply,Open
5,Vadim Sakharov,Вадим Сахаров,M,67.5,1986,66.7,220,135,210,565,SBD,Single-ply,Open
6,Denis Lazarev,Денис Лазарев,M,67.5,1987,62.75,220,120,220,560,SBD,Single-ply,Open
7,Ivan Mansurov,Иван Мансуров,M,67.5,1988,65.35,220,125,210,555,SBD,Single-ply,Open
DQ,Denis Gromov,Денис Громов,M,67.5,1984,67.05,250,,,,SBD,Single-ply,Open
DQ,Sergey Bakhtin,Сергей Бахтин,M,67.5,1985,67.5,,,,,SBD,Single-ply,Open
1,Aleksey Ganichev,Алексей Ганичев,M,75,1980,74.75,282.5,182.5,277.5,742.5,SBD,Single-ply,Open
2,Valeriy Zhidkov,Валерий Жидков,M,75,1979,74.85,252.5,215,245,712.5,SBD,Single-ply,Open
3,Aleksey Demakov,Алексей Демаков,M,75,1988,73.85,277.5,155,260,692.5,SBD,Single-ply,Open
4,Solyannikov Igor,Солянников Игорь,M,75,1976,74.35,277.5,175,240,692.5,SBD,Single-ply,Open
5,Ivan Kabalin,Иван Кабалин,M,75,1977,74.35,280,165,240,685,SBD,Single-ply,Open
6,Maksim Shashkin,Максим Шашкин,M,75,1983,74.95,260,155,260,675,SBD,Single-ply,Open
7,Borislav Meshkauskas,Борислав Мешкаускас,M,75,1987,74.45,250,152.5,260,662.5,SBD,Single-ply,Open
8,Lyubegin Aleksandr,Любегин Александр,M,75,1984,73.65,240,120,270,630,SBD,Single-ply,Open
9,Mavrin Aleksandr,Маврин Александр,M,75,1987,73.95,250,135,232.5,617.5,SBD,Single-ply,Open
10,Dmitriy Luchkin,Дмитрий Лучкин,M,75,1989,74.25,215,122.5,220,557.5,SBD,Single-ply,Open
1,Pavel Gerasimenko,Павел Герасименко,M,82.5,1985,81.55,325,210,295,830,SBD,Single-ply,Open
2,Viktor Kolobov,Виктор Колобов,M,82.5,1985,80.3,315,190,305,810,SBD,Single-ply,Open
3,Andrey Laykhinen,Андрей Лайхинен,M,82.5,1983,80.45,300,222.5,282.5,805,SBD,Single-ply,Open
4,Andrey Fomin,Андрей Фомин,M,82.5,1982,82.4,317.5,187.5,297.5,802.5,SBD,Single-ply,Open
5,Sergey Starkin,Сергей Старкин,M,82.5,1983,81.3,310,180,305,795,SBD,Single-ply,Open
6,Sergey Melekhin,Сергей Мелехин,M,82.5,1972,82.3,292.5,205,270,767.5,SBD,Single-ply,Open
7,Evgeniy Shurygin,Евгений Шурыгин,M,82.5,1983,82.5,280,207.5,280,767.5,SBD,Single-ply,Open
8,Vladimir Filippov,Владимир Филиппов,M,82.5,1986,78.55,300,187.5,260,747.5,SBD,Single-ply,Open
9,Pavel Kuzmich,Павел Кузьмич,M,82.5,1987,82.4,292.5,167.5,280,740,SBD,Single-ply,Open
10,Aleksey Kopylov,Алексей Копылов,M,82.5,1986,81.5,275,170,275,720,SBD,Single-ply,Open
11,Andrey Sharapov,Андрей Шарапов,M,82.5,1978,82.15,280,180,240,700,SBD,Single-ply,Open
12,Ilya Shubin,Илья Шубин,M,82.5,1985,81.5,280,145,255,680,SBD,Single-ply,Open
13,Andrey Vasilev,Андрей Васильев,M,82.5,1970,82.4,255,160,260,675,SBD,Single-ply,Open
14,Aleksandr Peus,Александр Пеус,M,82.5,1984,82.45,260,190,220,670,SBD,Single-ply,Open
DQ,Ilya Lutsenko,Илья Луценко,M,82.5,1984,82.35,,,,,SBD,Single-ply,Open
DQ,Vasiliy Shitikov,Василий Шитиков,M,82.5,1987,81.5,240,,,,SBD,Single-ply,Open
1,Vladimir Grishaev,Владимир Гришаев,M,90,1981,89.45,370,260,302.5,932.5,SBD,Single-ply,Open
2,Dmitriy Stepanov,Дмитрий Степанов,M,90,1982,89.65,335,222.5,337.5,895,SBD,Single-ply,Open
3,Aleksandr Glushakov,Александр Глушаков,M,90,1979,89.85,320,205,310,835,SBD,Single-ply,Open
4,Vitaliy Agafonov,Виталий Агафонов,M,90,1976,89.70,300,210,300,810,SBD,Single-ply,Open
5,Sorokin Evgeniy,Сорокин Евгений,M,90,1982,89.5,290,222.5,292.5,805,SBD,Single-ply,Open
6,Pavel Mitin,Павел Митин,M,90,1969,89.50,310,190,280,780,SBD,Single-ply,Open
7,Maksim Razgulyaev,Максим Разгуляев,M,90,1984,89.9,295,195,282.5,772.5,SBD,Single-ply,Open
8,Yuriy Stefanovich,Юрий Стефанович,M,90,1983,88.8,295,205,270,770,SBD,Single-ply,Open
9,Maksim Pestryakov,Максим Пестряков,M,90,1987,90,285,195,270,750,SBD,Single-ply,Open
10,Evgeniy Andreev,Евгений Андреев,M,90,1979,90,285,180,280,745,SBD,Single-ply,Open
11,Aleksandr Romanov,Александр Романов,M,90,1983,88.8,280,175,250,705,SBD,Single-ply,Open
12,Aleksandr Pekurov,Александр Пекуров,M,90,1981,85.95,230,175,260,665,SBD,Single-ply,Open
13,Aleksandr Gorokhovskiy,Александр Гороховский,M,90,1989,87.5,260,142.5,252.5,655,SBD,Single-ply,Open
14,Andrey Kukovyakin,Андрей Куковякин,M,90,1987,90,270,145,240,655,SBD,Single-ply,Open
15,Sergey Rubtsov,Сергей Рубцов,M,90,1963,84.9,230,170,220,620,SBD,Single-ply,Open
DQ,Sergey Kovalyov,Сергей Ковалёв,M,90,1980,88.45,280,185,,,SBD,Single-ply,Open
1,Andrey Belyaev,Андрей Беляев,M,100,1983,94.05,350,270,330,950,SBD,Single-ply,Open
2,Ivan Solovyov,Иван Соловьёв,M,100,1984,98.75,360,250,320,930,SBD,Single-ply,Open
3,Vyacheslav Kozlov,Вячеслав Козлов,M,100,1968,94.9,300,205,312.5,817.5,SBD,Single-ply,Open
4,Dmitriy Popov,Дмитрий Попов,M,100,1987,94,315,220,280,815,SBD,Single-ply,Open
5,Andrey Veber,Андрей Вебер,M,100,1973,94.75,310,195,310,815,SBD,Single-ply,Open
6,Aleksandr Kamenskiy,Александр Каменский,M,100,1981,96.6,310,200,275,785,SBD,Single-ply,Open
7,Aleksey Makarov,Алексей Макаров,M,100,1973,98.4,305,197.5,275,777.5,SBD,Single-ply,Open
8,Aleksey Krasavin,Алексей Красавин,M,100,1980,98.25,280,212.5,282.5,775,SBD,Single-ply,Open
9,Yuriy Porkhalov,Юрий Порхалов,M,100,1974,99.6,307.5,190,277.5,775,SBD,Single-ply,Open
10,Vladimir Komarov,Владимир Комаров,M,100,1982,97.3,280,175,290,745,SBD,Single-ply,Open
11,Aleksey Yutkin,Алексей Юткин,M,100,1974,99,315,180,250,745,SBD,Single-ply,Open
12,Sergey Kolmagorov,Сергей Колмагоров,M,100,1986,99.1,280,180,280,740,SBD,Single-ply,Open
13,Nikolay Rubtsov,Николай Рубцов,M,100,1978,99.3,280,175,272.5,727.5,SBD,Single-ply,Open
14,Dmitriy Petukhov,Дмитрий Петухов,M,100,1986,99.7,280,170,260,710,SBD,Single-ply,Open
15,Ruslan Zhuykov,Руслан Жуйков,M,100,1984,99.35,250,170,250,670,SBD,Single-ply,Open
16,Aleksandr Belyaev,Александр Беляев,M,100,1973,99.95,250,160,240,650,SBD,Single-ply,Open
1,Sergey Dobryakov,Сергей Добряков,M,110,1978,109.5,375,240,330,945,SBD,Single-ply,Open
2,Valeriy Abramov,Валерий Абрамов,M,110,1979,109.85,350,195,370,915,SBD,Single-ply,Open
3,Nikolay Uglyankin,Николай Углянкин,M,110,1969,103.85,350,235,315,900,SBD,Single-ply,Open
4,Igor Strekalovskiy,Игорь Стрекаловский,M,110,1981,106.85,320,225,312.5,857.5,SBD,Single-ply,Open
5,Dmitriy Reshetov,Дмитрий Решетов,M,110,1974,108,315,225,300,840,SBD,Single-ply,Open
6,Ivan Venchakov,Иван Венчаков,M,110,1983,106.1,320,200,300,820,SBD,Single-ply,Open
7,Sergey Zelentsov,Сергей Зеленцов,M,110,1970,107.5,300,195,300,795,SBD,Single-ply,Open
8,Evgeniy Ivanov,Евгений Иванов,M,110,1982,109,315,212.5,267.5,795,SBD,Single-ply,Open
9,Aleksey Novikov,Алексей Новиков,M,110,1979,103.5,290,210,280,780,SBD,Single-ply,Open
DQ,Dmitriy Andreev,Дмитрий Андреев,M,110,1979,100.2,,,,,SBD,Single-ply,Open
1,Anton Solodov,Антон Солодов,M,125,1985,124,420,260,360,1040,SBD,Single-ply,Open
2,Andrey Egorov,Андрей Егоров,M,125,1970,124,310,235,330,875,SBD,Single-ply,Open
3,Andrey Popov,Андрей Попов,M,125,1973,124.6,320,215,312.5,847.5,SBD,Single-ply,Open
4,Aleksandr Kanin,Александр Канин,M,125,1975,114.75,315,215,315,845,SBD,Single-ply,Open
5,Yuriy Drachyov,Юрий Драчёв,M,125,1982,116.15,300,255,260,815,SBD,Single-ply,Open
6,Vladimir Rusanov,Владимир Русанов,M,125,1977,123.5,300,240,275,815,SBD,Single-ply,Open
7,Aleksey Modin,Алексей Модин,M,125,1973,124.15,310,180,300,790,SBD,Single-ply,Open
8,Aleksandr Zagorulko,Александр Загорулько,M,125,1985,119.35,300,190,290,780,SBD,Single-ply,Open
9,Yaroslav Oleshov,Ярослав Олешов,M,125,1978,114.35,300,185,290,775,SBD,Single-ply,Open
1,Lambrionidis Femis,Ламбрионидис Фемис,M,125+,1985,129.7,415,290,370,1075,SBD,Single-ply,Open
2,Mikhail Sidorychev,Михаил Сидорычев,M,125+,1979,140.8,400,270,330,1000,SBD,Single-ply,Open
3,Artem Kovalchuk,Артём Ковальчук,M,125+,1982,130.75,392.5,230,325,947.5,SBD,Single-ply,Open
4,Nikolay Ilalov,Николай Илалов,M,125+,1982,133.35,337.5,222.5,285,845,SBD,Single-ply,Open
5,Andrey Golubev,Андрей Голубев,M,125+,1982,131.15,280,195,255,730,SBD,Single-ply,Open
