Division,WeightClassKg,Place,Name,Team,BodyweightKg,Best3SquatKg,Best3BenchKg,Best3DeadliftKg,TotalKg,Equipment,Event,Sex
Boys,52,1,Richie Garza,West Columbia,47.54,111.13,58.97,122.47,292.57,Single-ply,SBD,M
Boys,52,2,Brandon Hines,Stafford,48.9,72.57,49.9,108.86,231.33,Single-ply,SBD,M
Boys,52,3,Justin Garner,Sweeny,39.73,61.23,38.56,83.91,183.7,Single-ply,SBD,M
Boys,52,DQ,Braden Sanderson,Freeport Brazosport,,,,,,Single-ply,SBD,M
Boys,56,1,Jonathan Cardenas,Freeport Brazosport,55.61,170.1,102.06,183.7,455.86,Single-ply,SBD,M
Boys,56,2,Kenneth Trinidad,Manvel,54.7,120.2,68.04,142.88,331.12,Single-ply,SBD,M
Boys,56,DQ,Marco Sanchez,Hitchcock,55.52,131.54,,,,Single-ply,SBD,M
Boys,60,1,Dorian Stanton,Clute Brazoswood,59.42,131.54,83.91,158.76,374.21,Single-ply,SBD,M
Boys,60,2,Clay Frick,Sweeny,58.88,120.2,74.84,136.08,331.12,Single-ply,SBD,M
Boys,60,3,Michael Flores,Alvin Shadow Creek,59.24,77.11,65.77,92.99,235.87,Single-ply,SBD,M
Boys,60,DQ,Enrique Alvarez,Hitchcock,59.87,,,,,Single-ply,SBD,M
Boys,60,DQ,Phong Nguyen,Clute Brazoswood,,,,,,Single-ply,SBD,M
Boys,60,DQ,Mendoza Juan,Freeport Brazosport,,,,,,Single-ply,SBD,M
Boys,60,DQ,Saldivar Draven,Freeport Brazosport,,,,,,Single-ply,SBD,M
Boys,67.5,1,Jermaine Ellis,Freeport Brazosport,65.95,176.9,90.72,167.83,435.45,Single-ply,SBD,M
Boys,67.5,2,Dylan Knight,Sweeny,66.04,154.22,104.33,158.76,417.3,Single-ply,SBD,M
Boys,67.5,3,Jalen Taylor,Stafford,63.59,127.01,99.79,147.42,374.21,Single-ply,SBD,M
Boys,67.5,4,Noah Markgraf,West Columbia,66.5,124.74,74.84,149.69,349.27,Single-ply,SBD,M
Boys,67.5,5,Dashon Rogers,Hitchcock,61.6,136.08,72.57,138.35,347,Single-ply,SBD,M
Boys,67.5,6,Devin West,Clute Brazoswood,63.78,129.27,65.77,142.88,337.93,Single-ply,SBD,M
Boys,67.5,7,Cameron Taylor,Alvin Shadow Creek,67.04,117.93,72.57,145.15,335.66,Single-ply,SBD,M
Boys,67.5,8,David Soto,Alvin Shadow Creek,67.13,102.06,79.38,142.88,324.32,Single-ply,SBD,M
Boys,67.5,9,James Palma,Alvin Shadow Creek,64.23,102.06,70.31,142.88,315.25,Single-ply,SBD,M
Boys,67.5,10,Jacob Carter,Clute Brazoswood,60.24,97.52,61.23,131.54,290.3,Single-ply,SBD,M
Boys,67.5,11,Brenden Nino,Alvin Shadow Creek,65.68,102.06,61.23,122.47,285.76,Single-ply,SBD,M
Boys,67.5,12,Jacob Rainer,Alvin Shadow Creek,63.78,104.33,70.31,108.86,283.5,Single-ply,SBD,M
Boys,67.5,13,Alex McGuire,Sweeny,63.59,92.99,61.23,115.67,269.89,Single-ply,SBD,M
Boys,67.5,DQ,Logan Forson,Freeport Brazosport,,,,,,Single-ply,SBD,M
Boys,75,1,Michael McBroom,West Columbia,73.94,174.63,115.67,195.04,485.34,Single-ply,SBD,M
Boys,75,2,Jason Martinez,Alvin Shadow Creek,69.4,149.69,108.86,174.63,433.18,Single-ply,SBD,M
Boys,75,3,Preston Fillipi,Alvin Shadow Creek,74.66,142.88,111.13,167.83,421.84,Single-ply,SBD,M
Boys,75,4,Mason Seay,Clute Brazoswood,70.49,151.95,86.18,181.44,419.57,Single-ply,SBD,M
Boys,75,5,Davion Kerns,West Columbia,67.22,149.69,86.18,170.1,405.97,Single-ply,SBD,M
Boys,75,6,Byrson Wintjen,Clute Brazoswood,73.12,145.15,90.72,151.95,387.82,Single-ply,SBD,M
Boys,75,7,Daniel Cantu,Clute Brazoswood,68.95,129.27,77.11,165.56,371.95,Single-ply,SBD,M
Boys,75,8,Chandler Cook,West Columbia,69.49,124.74,79.38,147.42,351.53,Single-ply,SBD,M
Boys,75,9,Tyler Caluneo,Alvin Shadow Creek,74.03,86.18,61.23,113.4,260.82,Single-ply,SBD,M
Boys,75,DQ,Jacob Day,Clute Brazoswood,,,,,,Single-ply,SBD,M
Boys,75,DQ,Fabian Peoples,Freeport Brazosport,,,,,,Single-ply,SBD,M
Boys,75,DQ,Devonte Stafford,Freeport Brazosport,,,,,,Single-ply,SBD,M
Boys,75,DQ,Jacory Joseph,Freeport Brazosport,,,,,,Single-ply,SBD,M
Boys,75,DQ,Brandon Munoz,Freeport Brazosport,,,,,,Single-ply,SBD,M
Boys,82.5,1,Kolbi Foster,Sweeny,82.01,233.6,106.59,229.06,569.26,Single-ply,SBD,M
Boys,82.5,2,Randy Williams,Hitchcock,81.1,215.46,113.4,208.65,537.51,Single-ply,SBD,M
Boys,82.5,3,Anthony Lindsey,Manvel,79.2,206.38,113.4,204.12,523.9,Single-ply,SBD,M
Boys,82.5,4,Alfredo Arenas,Manvel,79.56,204.12,99.79,185.97,489.88,Single-ply,SBD,M
Boys,82.5,5,Jack Russel,West Columbia,77.93,179.17,115.67,190.51,485.34,Single-ply,SBD,M
Boys,82.5,6,Cameron Baker,Clute Brazoswood,75.93,158.76,92.99,176.9,428.64,Single-ply,SBD,M
Boys,82.5,7,Shanton Sanders,Sweeny,76.66,136.08,90.72,145.15,371.95,Single-ply,SBD,M
Boys,82.5,DQ,Diandre White,Manvel,78.29,158.76,,,,Single-ply,SBD,M
Boys,90,1,Linje Ramey,Hitchcock,84.64,183.7,113.4,204.12,501.22,Single-ply,SBD,M
Boys,90,2,Trent Serrato,Manvel,89.27,199.58,129.27,172.37,501.22,Single-ply,SBD,M
Boys,90,3,Hunter Thiem,Hitchcock,89.72,181.44,124.74,192.78,498.95,Single-ply,SBD,M
Boys,90,4,Joe Avalos,Manvel,84.19,181.44,117.93,183.7,483.08,Single-ply,SBD,M
Boys,90,5,Xavier Burk,Alvin Shadow Creek,87.45,181.44,97.52,195.04,474,Single-ply,SBD,M
Boys,90,6,Dillon Sefik,Sweeny,83.28,158.76,115.67,185.97,460.4,Single-ply,SBD,M
Boys,90,7,David McLaren,West Columbia,87.63,174.63,111.13,174.63,460.4,Single-ply,SBD,M
Boys,90,8,Ken Savanah,Stafford,86.36,147.42,124.74,174.63,446.79,Single-ply,SBD,M
Boys,90,9,Brady Byrd,Sweeny,88.63,165.56,90.72,188.24,444.52,Single-ply,SBD,M
Boys,90,10,Darence Barnes,Hitchcock,83.28,156.49,102.06,149.69,408.23,Single-ply,SBD,M
Boys,90,DQ,Kenneth Savanah,Stafford,,,,,,Single-ply,SBD,M
Boys,90,DQ,Osman Tabora,Alvin Shadow Creek,88.99,124.74,61.23,142.88,,Single-ply,SBD,M
Boys,90,DQ,Evan Green,Sweeny,83.37,,,,,Single-ply,SBD,M
Boys,90,DQ,Charles Reed,Manvel,,,,,,Single-ply,SBD,M
Boys,90,DQ,Steve Reyes,Freeport Brazosport,,,,,,Single-ply,SBD,M
Boys,90,DQ,Chris Davison,West Columbia,,,,,,Single-ply,SBD,M
Boys,100,1,Danny Marquez,Freeport Brazosport,98.79,217.72,158.76,215.46,591.94,Single-ply,SBD,M
Boys,100,2,Bernard Senchery,Clute Brazoswood,90.99,208.65,120.2,229.06,557.92,Single-ply,SBD,M
Boys,100,3,Sammy Romero,Sweeny,93.26,181.44,124.74,183.7,489.88,Single-ply,SBD,M
Boys,100,4,Anthony Gonzalez,Hitchcock,90.72,188.24,113.4,172.37,474,Single-ply,SBD,M
Boys,100,5,Jacob Martinez,Alvin Shadow Creek,94.98,172.37,106.59,192.78,471.74,Single-ply,SBD,M
Boys,100,6,Charles Nichols,Clute Brazoswood,93.53,183.7,95.25,185.97,464.93,Single-ply,SBD,M
Boys,100,7,Ethan George,Stafford,91.53,167.83,108.86,181.44,458.13,Single-ply,SBD,M
Boys,100,8,Noah Nelson,Stafford,95.25,113.4,97.52,147.42,358.34,Single-ply,SBD,M
Boys,100,DQ,Marc Boles,Freeport Brazosport,,,,,,Single-ply,SBD,M
Boys,100,DQ,Darrion Brown,Alvin Shadow Creek,,,,,,Single-ply,SBD,M
Boys,110,1,Xavian Hampton,Hitchcock,108.41,317.51,142.88,260.82,721.21,Single-ply,SBD,M
Boys,110,2,Antonio Williams,Freeport Brazosport,108.86,204.12,113.4,215.46,532.97,Single-ply,SBD,M
Boys,110,3,Jose Uribe,Clute Brazoswood,100.43,201.85,115.67,208.65,526.17,Single-ply,SBD,M
Boys,110,4,Tyler Danford,Clute Brazoswood,107.95,226.8,86.18,210.92,523.9,Single-ply,SBD,M
Boys,110,5,John Ray,Alvin Shadow Creek,108.23,192.78,120.2,201.85,514.83,Single-ply,SBD,M
Boys,110,6,Kameron Hill,Stafford,101.51,181.44,117.93,181.44,480.81,Single-ply,SBD,M
Boys,110,DQ,Xavier Rosette,Manvel,107.14,204.12,,,,Single-ply,SBD,M
Boys,110,DQ,Marco Gonzalez,Clute Brazoswood,103.06,179.17,,,,Single-ply,SBD,M
Boys,110,DQ,Corey Villien,Alvin Shadow Creek,,,,,,Single-ply,SBD,M
Boys,125,1,Victor Guevara,Freeport Brazosport,122.47,312.98,195.04,267.62,775.64,Single-ply,SBD,M
Boys,125,2,Colby Thomas,Manvel,124.19,249.48,170.1,244.94,664.51,Single-ply,SBD,M
Boys,125,3,Elijah Mason,Hitchcock,120.11,231.33,106.59,190.51,528.44,Single-ply,SBD,M
Boys,125,4,Raymond Kersten,West Columbia,124.01,201.85,120.2,201.85,523.9,Single-ply,SBD,M
Boys,125,5,CJ Bench,Clute Brazoswood,118.12,204.12,115.67,197.31,517.1,Single-ply,SBD,M
Boys,125,DQ,Joseph Solomon,Manvel,111.4,,,,,Single-ply,SBD,M
Boys,125,DQ,Trezaun Taylor,Manvel,112.94,240.4,,,,Single-ply,SBD,M
Boys,125,DQ,Jared Mancuso,Hitchcock,,,,,,Single-ply,SBD,M
Boys,125+,1,Michael Willer,Sweeny,138.07,272.16,138.35,226.8,637.3,Single-ply,SBD,M
Boys,125+,2,Moses Horn,Stafford,143.79,244.94,151.95,204.12,601.01,Single-ply,SBD,M
Boys,125+,3,Jonathan Woods,Sweeny,158.76,226.8,167.83,183.7,578.33,Single-ply,SBD,M
Boys,125+,4,Luke Brooks,Clute Brazoswood,127.28,226.8,102.06,215.46,544.31,Single-ply,SBD,M
Boys,125+,5,Cameron Williams,Sweeny,140.7,170.1,113.4,217.72,501.22,Single-ply,SBD,M
Boys,125+,6,Damarius Countee,Manvel,140.89,170.1,113.4,156.49,439.98,Single-ply,SBD,M
Boys,125+,7,Lance Jones,Manvel,127.55,149.69,124.74,102.06,376.48,Single-ply,SBD,M
Boys,125+,8,Jalen Momerelle,Manvel,135.99,172.37,,,172.37,Single-ply,S,M
Boys,125+,DQ,Timothy Richert,Manvel,129,158.76,,,,Single-ply,SBD,M
Boys,125+,DQ,Gustavo Cruz,Hitchcock,128.09,,,,,Single-ply,SBD,M
Boys,125+,DQ,Addison Lawson,Hitchcock,139.16,,,,,Single-ply,SBD,M
