Place,Name,Sex,Event,Division,WeightClassKg,Equipment,BirthYear,State,BodyweightKg,Squat1Kg,Squat2Kg,Squat3Kg,Best3SquatKg,Bench1Kg,Bench2Kg,Bench3Kg,Best3BenchKg,Deadlift1Kg,Deadlift2Kg,Deadlift3Kg,Best3DeadliftKg,TotalKg
1,Todd Solomon,M,B,R-M1,74,Raw,1970,OH,66.40,,,,,127.5,132.5,-135,132.5,,,,,132.5
1,Alexander Din,M,B,R-O,105,Raw,1990,MD,101.20,,,,,-145,147.5,152.5,152.5,,,,,152.5
1,Jack Solomon,M,B,R-T2,59,Raw,2000,OH,57.90,,,,,105,110,-115,110.0,,,,,110
1,Pete Miller,M,D,R-M4,83,Raw,1943,VA,80.90,,,,,,,,,125,140,150,150.0,150
1,Mary Montano,F,SBD,R-JR,84+,Raw,1995,MD,103.40,125,132.5,140,140.0,50,57.5,-62.5,57.5,137.5,145,150,150.0,347.5
1,Susan Harbison,F,SBD,R-M2,63,Raw,1966,MD,60.30,50,55,57.5,57.5,47.5,52.5,-57.5,52.5,90,97.5,105,105.0,215
1,Nicole Welsh,F,SBD,R-O,52,Raw,1987,DC,50.70,87.5,92.5,-97.5,92.5,62.5,67.5,70,70.0,90,95,-97.5,95.0,257.5
1,Natasha Clark,F,SBD,R-O,57,Raw,1990,VA,56.30,-102.5,102.5,-105,102.5,60,62.5,-67.5,62.5,130,135,142.5,142.5,307.5
1,Sarah Walter,F,SBD,R-O,63,Raw,1987,PA,61.00,125,-130,-130,125.0,70,75,-77.5,75.0,145,152.5,160,160.0,360
2,Corey Mueller,F,SBD,R-O,63,Raw,1992,MD,61.80,115,120,125,125.0,57.5,60,-62.5,60.0,137.5,145,152.5,152.5,337.5
1,Amanda Casares,F,SBD,R-O,72,Raw,1988,DC,66.60,127.5,132.5,137.5,137.5,65,70,72.5,72.5,150,157.5,162.5,162.5,372.5
2,Erin Bowers,F,SBD,R-O,72,Raw,1984,DC,70.90,107.5,115,120,120.0,65,70,72.5,72.5,130,140,147.5,147.5,340
3,Kellyn Hoffman,F,SBD,R-O,72,Raw,1985,DC,66.40,107.5,112.5,115,115.0,55,57.5,-60,57.5,145,152.5,-155,152.5,325
4,Shavonn Taylor,F,SBD,R-O,72,Raw,1980,VA,70.80,-95,100,105,105.0,47.5,-50,-50,47.5,107.5,115,122.5,122.5,275
1,Victoria Darnell,F,SBD,R-O,84,Raw,1992,MD,81.10,112.5,117.5,122.5,122.5,65,67.5,70,70.0,167.5,175,180,180.0,372.5
2,Ashley Hollander,F,SBD,R-O,84,Raw,1990,VA,80.40,-132.5,137.5,142.5,142.5,67.5,-72.5,72.5,72.5,137.5,145,155,155.0,370
DQ,Joanne Irby,F,SBD,R-O,84,Raw,1975,DC,75.60,-115,-115,-115,,62.5,65,67.5,67.5,145,150,157.5,157.5,
1,Tiffany Lee,F,SBD,R-O,84+,Raw,1983,MD,109.60,75,85,92.5,92.5,42.5,52.5,55,55.0,102.5,112.5,120,120.0,267.5
1,Alexander Kang,M,SBD,O,66,Single-ply,1984,MD,65.80,250,-265,265,265.0,25,-147.5,147.5,147.5,225,247.5,-250,247.5,660
1,Daniel Meiser,M,SBD,R-JR,83,Raw,1995,MD,82.50,145,160,165,165.0,105,110,-115,110.0,170,185,205,205.0,480
DQ,Noah Kim,M,SBD,R-JR,83,Raw,1997,VA,80.70,-200,-200,-200,,-125,,,,,,,,
1,Christopher Cichielo,M,SBD,R-JR,93,Raw,1996,NJ,90.00,160,170,177.5,177.5,120,125,-130,125.0,190,200,215,215.0,517.5
DQ,Matthew Mascone,M,SBD,R-JR,93,Raw,1995,MD,92.50,230,-250,-250,230.0,-140,-150,-150,,230,-240,-240,230.0,
1,Joseph Post,M,SBD,R-O,74,Raw,1991,MD,72.60,175,185,190,190.0,92.5,100,-105,100.0,215,227.5,235,235.0,525
2,David Mateus,M,SBD,R-O,74,Raw,1986,VA,73.50,142.5,145,-150,145.0,-120,122.5,-125,122.5,142.5,147.5,152.5,152.5,420
1,Trevor White,M,SBD,R-O,83,Raw,1994,MD,81.70,230,245,252.5,252.5,-137.5,137.5,-145,137.5,-242.5,242.5,255,255.0,645
2,Daniel Meiser,M,SBD,R-O,83,Raw,1995,MD,82.50,145,160,165,165.0,105,110,-115,110.0,170,185,205,205.0,480
3,Alex Smith,M,SBD,R-O,83,Raw,1991,DC,82.60,142.5,150,160,160.0,102.5,-107.5,-107.5,102.5,180,187.5,200,200.0,462.5
4,Charles Beller,M,SBD,R-O,83,Raw,1984,MD,82.40,137.5,145,147.5,147.5,92.5,100,-105,100.0,150,160,165,165.0,412.5
5,Eric Fiala,M,SBD,R-O,83,Raw,1981,DC,75.40,105,110,117.5,117.5,75,80,-85,80.0,125,135,142.5,142.5,340
DQ,Noah Kim,M,SBD,R-O,83,Raw,1997,VA,80.70,-200,-200,-200,,-125,,,,,,,,
1,Ricardo Gracias,M,SBD,R-O,93,Raw,1992,MD,92.70,245,260,272.5,272.5,150,162.5,170,170.0,265,285,295,295.0,737.5
2,Malcolm Almuntazar-Harris,M,SBD,R-O,93,Raw,1994,MD,90.60,152.5,-165,165,165.0,102.5,110,-122.5,110.0,180,192.5,207.5,207.5,482.5
1,Caleb Smith,M,SBD,R-O,105,Raw,1993,MD,96.60,200,222.5,230,230.0,135,150,-155,150.0,230,252.5,-260,252.5,632.5
2,Joseph Stephenson,M,SBD,R-O,105,Raw,1989,MD,105.00,195,-205,-205,195.0,125,130,135,135.0,205,-215,-215,205.0,535
1,Brian McLane,M,SBD,R-O,120+,Raw,1985,DC,129.70,-175,175,185,185.0,-115,120,-125,120.0,210,220,-230,220.0,525
1,Etienne Waroquet,M,SBD,R-T2,66,Raw,2001,OH,66.00,107.5,115,-127.5,115.0,82.5,87.5,-92.5,87.5,165,175,187.5,187.5,390
