Division,WeightClassKg,Place,Name,Team,BodyweightKg,Best3SquatKg,Best3BenchKg,Best3DeadliftKg,TotalKg,Equipment,Event,Sex
Boys,52,1,Otis Jackson,Aledo,48.35,61.23,52.16,113.4,226.8,Single-ply,SBD,M
Boys,60,1,Edward Canales,Granbury,58.51,111.13,88.45,136.08,335.66,Single-ply,SBD,M
Boys,60,DQ,Phillip Brooke,Aledo,57.33,,,,,Single-ply,SBD,M
Boys,67.5,1,Cooper Wallis,Aledo,66.86,185.97,106.59,208.65,501.22,Single-ply,SBD,M
Boys,67.5,2,Jesse Graham,Aledo,66.95,183.7,117.93,197.31,498.95,Single-ply,SBD,M
Boys,67.5,3,Saul Sanchez,Weatherford,60.6,124.74,72.57,142.88,340.19,Single-ply,SBD,M
Boys,67.5,4,Tucker Judge,Granbury,66.32,97.52,83.91,122.47,303.91,Single-ply,SBD,M
Boys,67.5,5,Ceigan Jones,Granbury,66.72,140.61,,163.29,303.91,Single-ply,SD,M
Boys,67.5,6,Micheal Anderson,Weatherford,66.22,127.01,,142.88,269.89,Single-ply,SD,M
Boys,67.5,7,Ryan Franklin,Weatherford,66.22,106.59,,106.59,213.19,Single-ply,SD,M
Boys,75,1,Grayson Porshe,Aledo,72.67,163.29,111.13,170.1,444.52,Single-ply,SBD,M
Boys,75,2,Gabe Flores,Weatherford,73.3,163.29,86.18,158.76,408.23,Single-ply,SBD,M
Boys,75,3,Weston Reese,Aledo,74.75,142.88,99.79,149.69,392.36,Single-ply,SBD,M
Boys,75,4,Carlos Amaro,Weatherford,69.22,124.74,86.18,154.22,365.14,Single-ply,SBD,M
Boys,75,5,Brendan Chism,Granbury,68.49,111.13,88.45,142.88,342.46,Single-ply,SBD,M
Boys,75,6,Dakota Simmons,Granbury,68.76,97.52,72.57,156.49,326.59,Single-ply,SBD,M
Boys,75,7,Micheal Anderson,Aledo,67.36,120.2,72.57,113.4,306.17,Single-ply,SBD,M
Boys,82.5,1,Peyton Hetrick,Weatherford,80.74,206.38,108.86,192.78,508.02,Single-ply,SBD,M
Boys,82.5,2,River Hall,Weatherford,78.61,174.63,111.13,165.56,451.32,Single-ply,SBD,M
Boys,82.5,3,Cooper Thompson,Aledo,81.51,149.69,102.06,136.08,387.82,Single-ply,SBD,M
Boys,82.5,4,James Nech,Granbury,81.47,136.08,79.38,138.35,353.8,Single-ply,SBD,M
Boys,82.5,5,Trysen Uzzell,Granbury,77.11,129.27,79.38,138.35,347,Single-ply,SBD,M
Boys,82.5,6,Treshaun Tyson,Weatherford,78.11,,77.11,129.27,206.38,Single-ply,BD,M
Boys,90,1,Braden Robertson,Weatherford,85.37,247.21,142.88,231.33,621.42,Single-ply,SBD,M
Boys,90,2,Ethan Herron,Weatherford,87.18,204.12,102.06,195.04,501.22,Single-ply,SBD,M
Boys,90,3,Sukhman Singh,Granbury,89.72,192.78,104.33,181.44,478.54,Single-ply,SBD,M
Boys,90,4,Drake Sanders,Granbury,89.81,167.83,129.27,181.44,478.54,Single-ply,SBD,M
Boys,90,5,Tim Parker #2,Weatherford,82.55,170.1,106.59,190.51,467.2,Single-ply,SBD,M
Boys,90,6,Michael Trull,Granbury,82.37,149.69,104.33,165.56,419.57,Single-ply,SBD,M
Boys,90,7,Tanner Knox,Weatherford,83.91,147.42,90.72,176.9,415.04,Single-ply,SBD,M
Boys,90,8,Brady Nelson,Weatherford,88.72,149.69,99.79,161.03,410.5,Single-ply,SBD,M
Boys,90,9,Colton Colley,Granbury,89.81,133.81,88.45,147.42,369.68,Single-ply,SBD,M
Boys,100,1,Jake Beaird,Weatherford,93.71,251.74,136.08,226.8,614.62,Single-ply,SBD,M
Boys,100,2,Jason Umanzor,Granbury,99.79,226.8,129.27,208.65,564.72,Single-ply,SBD,M
Boys,100,3,Elijah Dean,Weatherford,95.44,197.31,142.88,190.51,530.7,Single-ply,SBD,M
Boys,100,4,Parker Sims,Aledo,92.71,163.29,102.06,176.9,442.25,Single-ply,SBD,M
Boys,100,5,Jet Barton,Aledo,98.52,167.83,111.13,156.49,435.45,Single-ply,SBD,M
Boys,100,6,Tyiler Walker,Granbury,92.8,163.29,106.59,163.29,433.18,Single-ply,SBD,M
Boys,100,7,Rene Olvera,Weatherford,94.8,172.37,88.45,163.29,424.11,Single-ply,SBD,M
Boys,100,8,Grayson Javis,Aledo,99.61,151.95,92.99,161.03,405.97,Single-ply,SBD,M
Boys,100,9,Jesus Campos,Weatherford,91.35,147.42,74.84,147.42,369.68,Single-ply,SBD,M
Boys,110,1,Raul Sandoval,Granbury,107.32,249.48,149.69,231.33,630.49,Single-ply,SBD,M
Boys,110,2,Braxton Weger,Granbury,102.51,188.24,129.27,204.12,521.63,Single-ply,SBD,M
Boys,110,3,Reynaldo Valenzuela,Weatherford,101.51,199.58,102.06,210.92,512.56,Single-ply,SBD,M
Boys,110,4,Chandler Jackson,Weatherford,105.96,174.63,115.67,185.97,476.27,Single-ply,SBD,M
Boys,110,5,Colby Thomas,Aledo,109.63,167.83,117.93,167.83,453.59,Single-ply,SBD,M
Boys,110,6,Cade Taylor,Weatherford,104.51,154.22,81.65,147.42,383.29,Single-ply,SBD,M
Boys,110,7,Brandon Morris,Granbury,100.7,138.35,83.91,147.42,369.68,Single-ply,SBD,M
Boys,110,8,Logan Michael,Aledo,100.02,136.08,92.99,136.08,365.14,Single-ply,SBD,M
Boys,110,9,Elijah Telfair,Weatherford,105.05,124.74,70.31,136.08,331.12,Single-ply,SBD,M
Boys,125,1,Johnny Sutton,Granbury,113.4,181.44,115.67,208.65,505.76,Single-ply,SBD,M
Boys,125,2,Gavin Gardner-Knight,Aledo,118.48,170.1,129.27,170.1,469.47,Single-ply,SBD,M
Boys,125,3,Logan Escamilla,Aledo,116.39,170.1,111.13,183.7,464.93,Single-ply,SBD,M
Boys,125,4,Jacob Stewart,Aledo,113.04,163.29,106.59,142.88,412.77,Single-ply,SBD,M
Boys,125,5,Blake Maxwell,Weatherford,117.3,142.88,90.72,151.95,385.55,Single-ply,SBD,M
Boys,125+,1,Fernando Sanchez,Granbury,142.88,208.65,145.15,229.06,582.87,Single-ply,SBD,M
Boys,125+,2,Ethan Meese,Weatherford,144.79,226.8,124.74,192.78,544.31,Single-ply,SBD,M
Boys,125+,3,Chandler Knandel,Aledo,137.62,156.49,102.06,183.7,442.25,Single-ply,SBD,M
Boys,125+,4,Carlos Aguilar,Granbury,166.47,163.29,,181.44,344.73,Single-ply,SD,M
Boys,125+,5,Devin Just,Weatherford,129.36,120.2,,145.15,265.35,Single-ply,SD,M
