Place,Name,Sex,Country,BodyweightKg,WeightClassKg,Division,Squat1Kg,Squat2Kg,Squat3Kg,Squat4Kg,Best3SquatKg,Bench1Kg,Bench2Kg,Bench3Kg,Bench4Kg,Best3BenchKg,Deadlift1Kg,Deadlift2Kg,Deadlift3Kg,Deadlift4Kg,Best3DeadliftKg,TotalKg,Event,Equipment
G,Sabrina Pauli,F,Germany,63.5,67.5,T 13-15,40,-50,50,,50,40,45,-50,,45,70,80,85,,85,180,SBD,Wraps
1,Tereza Grubrová,F,Czechia,48.4,52,T 18-19,90,-100,100,,100,40,45,-47.5,,45,95,105,110,-116,110,255,SBD,Wraps
2,Kirstyn Kurowski,F,USA,51.7,52,T 18-19,60,70,-87.5,,70,42.5,-47.5,47.5,-50,47.5,-102.5,115,-140,,115,232.5,SBD,Wraps
1,Kayla Kurowski,F,USA,55.2,56,T 18-19,60,70,-95,,70,45,-52.5,52.5,,52.5,-92.5,92.5,-102.5,,92.5,215,SBD,Wraps
1,Lenka Lorencova,F,Czechia,64.2,67.5,Junior,70,-80,80,,80,30,35,-40,,35,80,95,-105,,95,210,SBD,Wraps
1,Mariša Golob,F,Slovenia,55.5,56,Open,140,-150,150,,150,85,90,-92.5,,90,150,160,167.5,,167.5,407.5,SBD,Wraps
1,Nicole Ketzler,F,Germany,64.1,67.5,Open,120,127.5,135,,135,70,75,-77.5,,75,110,122.5,127.5,,127.5,337.5,SBD,Wraps
2,Katharina Brening,F,Germany,66.8,67.5,Open,115,120,125,,125,70,-72.5,72.5,,72.5,130,-140,-140,,130,327.5,SBD,Wraps
3,Ewa Owsiany,F,Poland,66.5,67.5,Open,107.5,115,120,,120,72.5,77.5,-82.5,,77.5,115,122.5,-130,,122.5,320,SBD,Wraps
1,Denise Herber,F,Germany,72.8,75,Open,165,175,180,185,180,90,95,-100,,95,175,182.5,185.5,,185.5,460.5,SBD,Wraps
2,Marlies Götze,F,Germany,74,75,Open,160,167.5,175,,175,80,85,87.5,,87.5,165,172.5,-180,,172.5,435,SBD,Wraps
3,Viktoria Reeb,F,Germany,69.3,75,Open,-140,140,150,,150,70,80,-85,,80,-160,170,-180,-186,170,400,SBD,Wraps
4,Anja Günther,F,Germany,69.5,75,Open,-90,-90,90,,90,60,65,-70,,65,110,-115,-115,,110,265,SBD,Wraps
1,Charlene Holland,F,Germany,82.6,90,Open,125,135,-140,,135,70,76,80,-82.5,80,140,150,155,,155,370,SBD,Wraps
1,Georg Winter,M,Germany,106.9,110,Open,140,150,-155,,150,70,80,-90,,80,130,140,-150,,140,370,SBD,Wraps
1,Michaela Sideratos,F,Germany,58,60,Subm.,-80,80,90,,90,45,50,-52.5,,50,100,110,120,,120,260,SBD,Wraps
1,Mónika Bazsó,F,Hungary,65.1,67.5,M 40-44,-122.5,132.5,-138,,132.5,70,77.5,-82.5,,77.5,135,145,150,-152,150,360,SBD,Wraps
1,Kis Katalin Dr. Schindlerne,F,Hungary,66.2,67.5,M 45-49,135,145,147.5,,147.5,85,95,-97.5,,95,140,150,158,,158,400,SBD,Wraps
2,Marcela Zazvonilová,F,Czechia,64,67.5,M 45-49,125,-135,-140,,125,55,65,70,,70,150,160,-167.5,,160,355,SBD,Wraps
1,Eleonóra Szombatová,F,Slovakia,56,56,M 50-54,55,60,65,,65,30,35,-37.5,,35,80,85,90,,90,190,SBD,Wraps
1,Heidrun Woltjen,F,Germany,57.8,60,M 50-54,92.5,97.5,102.5,-107.5,102.5,45,47.5,50,,50,100,107.5,112.5,115,112.5,265,SBD,Wraps
1,Michaela Pennekamp,F,Germany,101.5,90+,M 50-54,140,152.5,162.5,,162.5,-75,75,82.5,90,82.5,160,177.5,185,-190,185,430,SBD,Wraps
1,Květuše Baranovičová,F,Slovakia,57.3,60,M 60-64,-60,60,65,,65,30,35,-37.5,,35,85,95,100.5,,100.5,200.5,SBD,Wraps
G,Eric Kruse,M,Germany,98.3,100,T 13-15,-190,202.5,210,,210,100,107.5,-115,,107.5,205,215,-225,,215,532.5,SBD,Wraps
G,Jakub Świerzko,M,Poland,94.7,100,T 13-15,125,-135,140,,140,95,102.5,-105,,102.5,150,-160,-160,,150,392.5,SBD,Wraps
1,Tom Huschenbett,M,Germany,46.6,56,T 16-17,120.5,130,-140,140,130,70,80,-82.5,,80,60,70,75,,75,285,SBD,Wraps
1,Adrián Untermayer,M,Slovakia,69.2,75,T 16-17,-90,100,110,,110,80,90,-100,,90,170,180,-185,,180,380,SBD,Wraps
1,Tomáš Procházka,M,Czechia,77.3,82.5,T 16-17,-200,-200,210,,210,115,125,131,,131,-200,215,222.5,,222.5,563.5,SBD,Wraps
2,Mikulas Nowak,M,Czechia,82,82.5,T 16-17,210,225,-241,,225,100,105,-110,,105,200,210,-220,,210,540,SBD,Wraps
3,Tomasz Wittkowski,M,Poland,80.8,82.5,T 16-17,120,135,-140,,135,95,100,105,,105,150,160,170,,170,410,SBD,Wraps
1,Florian Abeltshauser,M,Germany,97.5,100,T 16-17,160,175,185,,185,100,105,-110,,105,165,180,200,,200,490,SBD,Wraps
3,Georg Winter,M,Austria,90.2,100,T 16-17,-140,150,-170,,150,80,-90,-90,,80,150,-170,-170,,150,380,SBD,Wraps
1,Marouan Benzadi,M,Germany,74.2,75,T 18-19,160,180,-195,,180,110,115,125,,125,180,200,-215.5,,200,505,SBD,Wraps
1,Antonín Tenkáčm,M,Czechia,82.5,82.5,T 18-19,190,210,220,,220,100,115,-125,,115,200,220,232.5,,232.5,567.5,SBD,Wraps
2,Torge Trieglaff,M,Germany,81.5,82.5,T 18-19,170,185,-195,,185,110,117.5,-130.5,,117.5,190,205,212.5,,212.5,515,SBD,Wraps
3,Janik Piepenhagen,M,Germany,75.7,82.5,T 18-19,160,167.5,172.5,,172.5,107.5,112.5,-115,,112.5,170,180,187.5,,187.5,472.5,SBD,Wraps
4,Konrad Majocha,M,Poland,80.7,82.5,T 18-19,135,150,160,,160,110,-117.5,-117.5,,110,170,-190,-205,,170,440,SBD,Wraps
1,Kevin Hesse,M,Germany,89.5,90,T 18-19,-240,240,252.5,,252.5,115,125,135,,135,230,250,262.5,,262.5,650,SBD,Wraps
1,Samuel Hausberger,M,Austria,110,110,T 18-19,240,260,,,260,170,180,-190,,180,260,280,-300,,280,720,SBD,Wraps
2,Vlastimil Šafařík,M,Czechia,101.1,110,T 18-19,225,-240,245,,245,145,155,160,,160,220,-235,240,,240,645,SBD,Wraps
1,Alexander Wartig,M,Germany,74.4,75,Junior,170,-185,190,,190,125,132.5,-135,,132.5,210,220,-225,,220,542.5,SBD,Wraps
2,Andreas Buchner,M,Germany,75,75,Junior,170,-185,-185,,170,125,-130,-130,,125,210,-220,220,,220,515,SBD,Wraps
DQ,Jiří Hansík,M,Czechia,73.9,75,Junior,-182.5,,-182.5,,,,,,,,,,,,,,SBD,Wraps
1,Tobias Gnadl,M,Germany,81.5,82.5,Junior,170,-185,185,,185,107.5,112.5,-117.5,,112.5,215,-237.5,-237.5,,215,512.5,SBD,Wraps
1,Marvin Engel,M,Germany,87.6,90,Junior,220,240,-250,,240,160,172.5,-175,,172.5,280,300,-310,,300,712.5,SBD,Wraps
2,Jakub Princl,M,Czechia,87.3,90,Junior,210,220,-225,,220,125,132.5,140,,140,240,252.5,,,252.5,612.5,SBD,Wraps
3,Marcel Kleuß,M,Germany,90,90,Junior,165,175,-185,,175,-125,125,-130,,125,200,210,-220,,210,510,SBD,Wraps
DQ,Richard Novotný,M,Czechia,89.8,90,Junior,-240,-240,-240,,,,,,,,,,,,,,SBD,Wraps
1,Leroy Bachmann,M,Germany,96.5,100,Junior,130,135,140,,140,90,100,-105,,100,180,190,200,,200,440,SBD,Wraps
1,Igor Golecký,M,Slovakia,104.5,110,Junior,240,-260.5,-260.5,,240,160,165,-170,,165,250,260,-270,,260,665,SBD,Wraps
2,Denis Hofman,M,Czechia,102.2,110,Junior,220,-240,-250,,220,140,147.5,-152.5,,147.5,260,280.5,-290,,280.5,648,SBD,Wraps
1,Jan Schnoor,M,Germany,116.7,125,Junior,240,260,-281,,260,157.5,167.5,175,,175,245,265,-280,,265,700,SBD,Wraps
1,Tomasz Miloch,M,Poland,75,75,Open,205,210,-215,,210,130,-140,-140,,130,220,230,-240,,230,570,SBD,Wraps
1,Simon Stopar,M,Slovenia,81.9,82.5,Open,270,280,-285,,280,135,-140,140,,140,250,265,-270,,265,685,SBD,Wraps
2,Marcin Helwig,M,Poland,82.3,82.5,Open,215,222.5,227.5,,227.5,155,160,165,,165,240,250,257.5,,257.5,650,SBD,Wraps
3,Matthias Schröter,M,Germany,81.2,82.5,Open,-160,165,180,,180,125,-130,-130,,125,220,230,240,,240,545,SBD,Wraps
4,Nikolay Klass,M,Germany,78.5,82.5,Open,170,182.5,-190,,182.5,135,-142.5,-142.5,,135,195,-205,-217.5,,195,512.5,SBD,Wraps
1,Dominic Walter,M,Germany,88.6,90,Open,-210,-210,210,,210,120,130,140,,140,210,220,225,,225,575,SBD,Wraps
2,Christian Fischl,M,Germany,88.2,90,Open,200,-210,210,,210,120,130,-135,,130,-210,210,215,,215,555,SBD,Wraps
3,Viliam Buzinkay,M,Czechia,89.2,90,Open,-200,-200,200,,200,130,140,-150,,140,190,205,-212.5,,205,545,SBD,Wraps
4,Jiri Penicka,M,Czechia,88.1,90,Open,175,185,-200,,185,100,-115,-115,,100,180,-200,200,,200,485,SBD,Wraps
1,Sebastian Pawlik,M,Poland,99.8,100,Open,280,-290,-290,,280,180,190,-200,,190,250,270,-290,,270,740,SBD,Wraps
2,Daniel Schimmel,M,Germany,96.6,100,Open,-235,235,,,235,160,170,-180,,170,200,220,235,,235,640,SBD,Wraps
3,Steffen Kolb,M,Germany,99.8,100,Open,235,-250,-250,,235,140,150,-160,,150,230,242.5,-257.5,,242.5,627.5,SBD,Wraps
1,Nico Viduka,M,Germany,108.9,110,Open,280,300,310,320.5,310,190,195,-200,,195,275,285,295,,295,800,SBD,Wraps
2,Josef Peška,M,Czechia,107.3,110,Open,270,290,-300,,290,190,200,-205,,200,200,230,240,,240,730,SBD,Wraps
3,Anton Scherz,M,Germany,107.5,110,Open,235,250,260,,260,152.5,160,-165,,160,280,290,-312.5,,290,710,SBD,Wraps
4,Jan Fleckenstein,M,Germany,105.6,110,Open,230,245,-260,,245,180,187.5,-192.5,,187.5,245,257.5,267.5,,267.5,700,SBD,Wraps
1,Vladimír Jeřábek,M,Czechia,117.3,125,Open,280,300,312.5,,312.5,195,202.5,207.5,,207.5,310,330,-340.5,,330,850,SBD,Wraps
2,Grzegorz Walga,M,Poland,112.3,125,Open,280,300,-310,,300,220,230,-235,,230,270,285,-300,,285,815,SBD,Wraps
3,Rafael Wojcik,M,Poland,114.3,125,Open,240,260,270,,270,170,180,-185,,180,290,305,320,,320,770,SBD,Wraps
4,Aljoscha Lehmbrock,M,Germany,121.4,125,Open,-260,260,-275,,260,-165,175,-190,,175,250,282.5,-300,,282.5,717.5,SBD,Wraps
5,Andreas Wingendorff,M,Germany,110.7,125,Open,240,255,260,,260,150,-155,155,,155,280,-300,,,280,695,SBD,Wraps
6,Phillip Lang,M,Austria,114.3,125,Open,200,220,240,,240,-160,160,170,,170,270,-290,-290,,270,680,SBD,Wraps
7,Michael Becherer,M,Germany,120.1,125,Open,210,230,-250,,230,135,145,-155,,145,210,225,-240,,225,600,SBD,Wraps
1,Roland Hegedüs,M,Slovakia,131.8,140,Open,270,290,-312.5,,290,190,200,205,,205,290,300,-305,,300,795,SBD,Wraps
2,Tomas Semancik,M,Czechia,135.1,140,Open,260,-280,280,,280,200,207.5,217.5,,217.5,280,295,-302.5,,295,792.5,SBD,Wraps
3,René Fiedler,M,Germany,132,140,Open,230,240,,,240,180,190,-200,,190,230,240,-250,,240,670,SBD,Wraps
1,Michal Buranský,M,Slovakia,67.5,67.5,Subm.,130,140,-150,,140,100,105,-110,,105,180,200,-205,,200,445,SBD,Wraps
1,Stefan Gneist,M,Germany,86.1,90,Subm.,165,170,-180,,170,140,145,-150,,145,170,180,-190,,180,495,SBD,Wraps
1,Martin Horák,M,Czechia,97,100,Subm.,200,215,222.5,,222.5,145,160,-165,,160,210,-225,225,,225,607.5,SBD,Wraps
2,Grzegorz Drewniany,M,Poland,96.9,100,Subm.,140,160,-180,,160,150,160,-165,-165,160,160,,,,160,480,SBD,Wraps
1,Mario Stöger,M,Germany,109.7,110,Subm.,280,,,,280,175,185,190,,190,260,270,280,,280,750,SBD,Wraps
2,Lars Stöwesandt,M,Germany,102.5,110,Subm.,210,222.5,237.5,,237.5,190,-200,-200,,190,275,285,292.5,,292.5,720,SBD,Wraps
3,Lajos Bán,M,Hungary,104,110,Subm.,225,-235,235,,235,150,-155,-155,,150,235,-250,-250,,235,620,SBD,Wraps
1,Matthias Große,M,Germany,116,125,Subm.,240,260,-270,,260,165,175,-180,,175,260,280,-290,-290,280,715,SBD,Wraps
1,Patrick Ohleff,M,Germany,135,140,Subm.,270,285,-300,,285,180,190,-200,,190,270,285,292.5,-300,292.5,767.5,SBD,Wraps
1,Erni Gregorčič,M,Slovenia,74.6,75,M 40-44,180,-200,205,,205,130,140,145,,145,210,230,242.5,,242.5,592.5,SBD,Wraps
2,Thomas Fischer,M,Germany,73.4,75,M 40-44,110,120,-130,,120,90,95,,,95,140,145,-155,,145,360,SBD,Wraps
1,Dan Dumitrache,M,Thailand,82.5,82.5,M 40-44,270,280,282.5,,282.5,180,190,195,,195,220,-230,-243,,220,697.5,SBD,Wraps
2,Sebastian Beck,M,Germany,82,82.5,M 40-44,180,190,200,,200,110,120,-130,,120,210,,,,210,530,SBD,Wraps
1,Mihály Bakó,M,Hungary,85.9,90,M 40-44,-190,190,-205,,190,125,140,,,140,200,225,,,225,555,SBD,Wraps
1,Michael Hofbauer,M,Austria,99.9,100,M 40-44,150,-170,,,150,85,92.5,-95,,92.5,170,190,-200,,190,432.5,SBD,Wraps
1,Danny Schmalz,M,Germany,123,125,M 40-44,282.5,300,310,,310,172.5,180,-190.5,,180,250,,,,250,740,SBD,Wraps
1,Oliver Dorsch,M,Germany,134.6,140,M 40-44,260,270,280,,280,-170,170,-177.5,,170,200,,,,200,650,SBD,Wraps
1,Steffen Giesecke,M,Germany,64.9,67.5,M 45-49,130,-140,140,,140,90,100,105,,105,170,180,190,,190,435,SBD,Wraps
1,László Kiss,M,Hungary,99.3,100,M 45-49,240,260,-270,,260,140,150,160,,160,240,,,,240,660,SBD,Wraps
2,Steffen Reisbach,M,Germany,92.1,100,M 45-49,175,-190,,,175,130,135,140,,140,190,205,210,,210,525,SBD,Wraps
1,Tibor Pukáč,M,Slovakia,103.8,110,M 45-49,240,247.5,255,,255,155,160,165,,165,235,242.5,-245,,242.5,662.5,SBD,Wraps
2,Andreas Schmidt,M,Germany,100.4,110,M 45-49,-200,210,220,,220,-140,150,160,,160,240,250,260,,260,640,SBD,Wraps
3,Michal Šafařík,M,Czechia,108.7,110,M 45-49,225,-250,-260,,225,140,145,-150,,145,220,240,,,240,610,SBD,Wraps
1,Alizada Kamran,M,Azerbaijan,98.6,100,M 50-54,140,155,,,155,130,-137.5,,,130,-180,180,200,,200,485,SBD,Wraps
1,Bernd Backhaus,M,Germany,106.4,110,M 50-54,-260,260,-275,,260,155,-163,-163,,155,230,250,270,,270,685,SBD,Wraps
1,Kurt Rooch,M,Germany,65.6,67.5,M 55-59,136,145,155,,155,95,105,112.5,115,112.5,140,160,178,182.5,178,445.5,SBD,Wraps
1,Gottfried Foltas,M,Germany,72.7,75,M 55-59,115,125,-140,,125,90,-95,95,,95,125,155,171,-190,171,391,SBD,Wraps
1,Sergio Bianchi,M,Italy,88.1,90,M 55-59,160,180,-201,,180,80,90,97.5,,97.5,180,,,,180,457.5,SBD,Wraps
1,Wieslaw Wróbel,M,Poland,98.2,100,M 55-59,200,-220,225,,225,130,135,-140,,135,230,240,250,,250,610,SBD,Wraps
2,Lothar Pritzl,M,Germany,94.5,100,M 55-59,-180,200,,,200,110,120,125,,125,160,180,-200,,180,505,SBD,Wraps
1,Ralf Döhne,M,Germany,107,110,M 55-59,230,250.5,265,,265,160,170.5,-175,,170.5,-220,220,250,260,250,685.5,SBD,Wraps
2,Janusz Witkowski,M,Poland,109.4,110,M 55-59,170,180,-187.5,,180,140,145,-147.5,,145,190,205,217.5,,217.5,542.5,SBD,Wraps
1,Friedhelm Mandel,M,Germany,113.6,125,M 55-59,160,182.5,-192.5,,182.5,125,136,-140,,136,175,192.5,202.5,,202.5,521,SBD,Wraps
1,Calin Eschenasy,M,Germany,73.7,75,M 60-64,-155,155,-170,,155,95,100.5,-102.5,,100.5,172.5,200,,,200,455.5,SBD,Wraps
1,Wojtek Kaminski,M,Germany,87.2,90,M 60-64,90,105,115,,115,100,110,,,110,150,165,180,,180,405,SBD,Wraps
1,József Sztanke,M,Hungary,94.8,100,M 60-64,220,-240.5,240.5,,240.5,155,170.5,172.5,,172.5,-230,230,235.5,240,235.5,648.5,SBD,Wraps
1,Jozef Solokowski,M,Poland,104.1,110,M 60-64,240,-260,260,,260,120,130,-135,,130,240,270,-295,,270,660,SBD,Wraps
1,Klaus-Robert Franck,M,Germany,112.8,125,M 60-64,-185,-185,185,-190,185,155,-160,165,170.5,165,-180,180,-200,,180,530,SBD,Wraps
1,Stefan Sochański,M,Poland,89.1,90,M 65-69,-175,-175,175,,175,-92.5,92.5,,,92.5,195,217.5,,,217.5,485,SBD,Wraps
2,Hartmut Wiechert,M,Germany,89.6,90,M 65-69,90,-100,-100,,90,-85,85,-87.5,,85,130,145,-157.5,,145,320,SBD,Wraps
1,Herbert Kalischke,M,Germany,97.6,100,M 65-69,160,170,-175,,170,100,-107.5,-107.5,,100,160,-170,170,,170,440,SBD,Wraps
1,Reinhold Sack,M,Germany,79,82.5,M 70-74,140,145,147.5,,147.5,120,-125,-125,,120,160,165,170,,170,437.5,SBD,Wraps
1,Ulrich Mielich,M,Germany,74.6,75,M 75-79,65,72.5,77.5,,77.5,52.5,-57.5,57.5,,57.5,95,105,115,,115,250,SBD,Wraps
1,Dr. Csaba Keszthelyi,M,Hungary,78.6,82.5,M 80+,90,102.5,110,,110,72.5,-77.5,77.5,,77.5,130,137.5,,,137.5,325,SBD,Wraps
