Division,WeightClassKg,Place,Name,Team,BodyweightKg,Best3SquatKg,Best3BenchKg,Best3DeadliftKg,TotalKg,Equipment,Event,Sex
Boys,52,1,Billy Jackson,Odessa,51.71,156.49,88.45,158.76,403.7,Single-ply,SBD,M
Boys,52,2,David Carrasco,Big Lake Reagan County,48.44,136.08,74.84,142.88,353.8,Single-ply,SBD,M
Boys,52,3,Johnny Gomez,Rocksprings,50.62,124.74,72.57,140.61,337.93,Single-ply,SBD,M
Boys,52,4,Trey Wachsmann,Miles,51.26,129.27,61.23,129.27,319.78,Single-ply,SBD,M
Boys,52,5,Trey Phillips,San Angelo Grape Creek,40.64,58.97,20.41,72.57,151.95,Single-ply,SBD,M
Boys,56,1,Ryan Folds,San Angelo Grape Creek,53.21,163.29,81.65,163.29,408.23,Single-ply,SBD,M
Boys,56,2,Raul Rey,Big Lake Reagan County,53.89,147.42,65.77,156.49,369.68,Single-ply,SBD,M
Boys,56,DQ,Benny Dominguez,Odessa,53.34,115.67,,204.12,,Single-ply,SBD,M
Boys,60,1,Anthony Olivares,Eldorado,59.78,165.56,97.52,170.1,433.18,Single-ply,SBD,M
Boys,60,2,Brad Gryder,Mertzon Irion County,59.87,136.08,88.45,151.95,376.48,Single-ply,SBD,M
Boys,60,3,David Corbin,San Angelo Grape Creek,57.97,142.88,74.84,151.95,369.68,Single-ply,SBD,M
Boys,60,DQ,Omar Ramos,San Angelo Lake View,59.78,117.93,,147.42,,Single-ply,SBD,M
Boys,67.5,1,Oscar Narvaez,Mertzon Irion County,65.77,208.65,111.13,204.12,523.9,Single-ply,SBD,M
Boys,67.5,2,Diego Perez #1,Rocksprings,66.86,188.24,113.4,183.7,485.34,Single-ply,SBD,M
Boys,67.5,3,Kevin Yates,Christoval,67.13,195.04,102.06,188.24,485.34,Single-ply,SBD,M
Boys,67.5,4,Cade Cramer,Mertzon Irion County,63.68,181.44,90.72,147.42,419.57,Single-ply,SBD,M
Boys,67.5,5,Henry Ramos,Sonora,64.41,151.95,83.91,170.1,405.97,Single-ply,SBD,M
Boys,67.5,6,Gavin DeLeon,San Angelo Grape Creek,63.05,151.95,77.11,154.22,383.29,Single-ply,SBD,M
Boys,67.5,7,John Gonzales,Miles,64.14,120.2,79.38,140.61,340.19,Single-ply,SBD,M
Boys,67.5,8,Paco Ramirez,Rocksprings,63.05,124.74,70.31,142.88,337.93,Single-ply,SBD,M
Boys,67.5,9,Elias Luna,Eldorado,64.41,102.06,83.91,147.42,333.39,Single-ply,SBD,M
Boys,67.5,10,Parker Cherry,Odessa,62.96,124.74,70.31,122.47,317.51,Single-ply,SBD,M
Boys,67.5,11,Edgar Muniz,Eldorado,66.95,113.4,61.23,124.74,299.37,Single-ply,SBD,M
Boys,75,1,Elliott Hilliard,Odessa,74.21,174.63,102.06,199.58,476.27,Single-ply,SBD,M
Boys,75,2,Juan Flores,Rocksprings,71.03,172.37,90.72,192.78,455.86,Single-ply,SBD,M
Boys,75,3,Leroy Garcia,Miles,73.21,161.03,104.33,188.24,453.59,Single-ply,SBD,M
Boys,75,4,James Christensen,San Angelo Lake View,71.76,165.56,102.06,167.83,435.45,Single-ply,SBD,M
Boys,75,5,Frankie Villanueva,Eldorado,71.21,149.69,77.11,156.49,383.29,Single-ply,SBD,M
Boys,75,6,Royce Garcia,San Angelo Lake View,69.85,145.15,72.57,163.29,381.02,Single-ply,SBD,M
Boys,75,7,Braden Jowers,San Angelo Lake View,67.86,138.35,83.91,151.95,374.21,Single-ply,SBD,M
Boys,75,8,Joseph Delgado,Sonora,73.66,120.2,86.18,147.42,353.8,Single-ply,SBD,M
Boys,75,9,Ariel Lugo,Sonora,72.21,102.06,86.18,145.15,333.39,Single-ply,SBD,M
Boys,75,10,Mark Johnson,Miles,74.12,106.59,72.57,140.61,319.78,Single-ply,SBD,M
Boys,75,11,Teaggan DeLeon,San Angelo Grape Creek,71.67,113.4,72.57,122.47,308.44,Single-ply,SBD,M
Boys,82.5,1,Julio Narvaez,Eldorado,81.78,199.58,117.93,190.51,508.02,Single-ply,SBD,M
Boys,82.5,2,Frank Muniz,San Angelo Lake View,78.56,167.83,113.4,217.72,498.95,Single-ply,SBD,M
Boys,82.5,3,Larry Steger,Odessa,78.47,174.63,120.2,192.78,487.61,Single-ply,SBD,M
Boys,82.5,4,Michael Solis,Sonora,79.65,163.29,90.72,181.44,435.45,Single-ply,SBD,M
Boys,82.5,5,Juan Baez,Sonora,80.29,170.1,92.99,129.27,392.36,Single-ply,SBD,M
Boys,82.5,6,Jeremiah Brown,San Angelo Lake View,78.02,145.15,81.65,147.42,374.21,Single-ply,SBD,M
Boys,82.5,7,Issahia Valenzuela,Big Lake Reagan County,80.56,142.88,74.84,145.15,362.87,Single-ply,SBD,M
Boys,82.5,8,Nick Reyes,Big Lake Reagan County,77.66,106.59,83.91,127.01,317.51,Single-ply,SBD,M
Boys,82.5,DQ,Razi Galindo,Rocksprings,78.47,,,,,Single-ply,SBD,M
Boys,90,1,Nico Ortiz,Big Lake Reagan County,88.99,204.12,106.59,190.51,501.22,Single-ply,SBD,M
Boys,90,2,Kodee Warriner,Big Lake Reagan County,87.09,181.44,97.52,188.24,467.2,Single-ply,SBD,M
Boys,90,3,Trey Ortiz,Big Lake Reagan County,86,183.7,108.86,158.76,451.32,Single-ply,SBD,M
Boys,90,4,Chris Llanas,Miles,85.55,138.35,92.99,151.95,383.29,Single-ply,SBD,M
Boys,90,5,Chris Smith,San Angelo Grape Creek,83.01,136.08,83.91,149.69,369.68,Single-ply,SBD,M
Boys,100,1,Christian Baca,San Angelo Lake View,99.79,226.8,145.15,224.53,596.47,Single-ply,SBD,M
Boys,100,2,Anthony Gloria,San Angelo Lake View,91.99,215.46,131.54,215.46,562.45,Single-ply,SBD,M
Boys,100,3,Christian Alvarez,Odessa,99.79,188.24,142.88,195.04,526.17,Single-ply,SBD,M
Boys,100,4,Brison Smith,Odessa,95.44,183.7,133.81,174.63,492.15,Single-ply,SBD,M
Boys,100,5,Christian Ramon,Sonora,97.7,158.76,106.59,136.08,401.43,Single-ply,SBD,M
Boys,100,DQ,Colton Williams,Miles,91.9,147.42,,,,Single-ply,SBD,M
Boys,110,1,Angel De Luna,Big Lake Reagan County,109.68,294.84,165.56,242.67,703.07,Single-ply,SBD,M
Boys,110,2,Nathan Sanchez,Odessa,103.92,192.78,106.59,217.72,517.1,Single-ply,SBD,M
Boys,110,3,David Luera,San Angelo Lake View,101.42,183.7,120.2,208.65,512.56,Single-ply,SBD,M
Boys,110,4,Brady Herbst,Junction,102.69,181.44,122.47,181.44,485.34,Single-ply,SBD,M
Boys,110,5,Chris Chappa,San Angelo Lake View,107.86,181.44,124.74,170.1,476.27,Single-ply,SBD,M
Boys,110,6,Albert Arispe,Eldorado,102.97,163.29,113.4,170.1,446.79,Single-ply,SBD,M
Boys,110,7,George Harris,Odessa,104.24,161.03,92.99,170.1,424.11,Single-ply,SBD,M
Boys,110,8,Esrael Hernandez,San Angelo Lake View,103.96,120.2,68.04,117.93,306.17,Single-ply,SBD,M
Boys,125,1,Tristan Ortiz,Big Lake Reagan County,112.26,294.84,129.27,215.46,639.57,Single-ply,SBD,M
Boys,125,2,Bailey Perez,Odessa,114.21,210.92,115.67,231.33,557.92,Single-ply,SBD,M
Boys,125,3,Julian Guerra,Sonora,121.38,195.04,161.03,199.58,555.65,Single-ply,SBD,M
Boys,125,4,Jason Carrillo,Rocksprings,111.13,226.8,124.74,183.7,535.24,Single-ply,SBD,M
Boys,125,5,Bryndon Robles,Sonora,121.25,215.46,172.37,147.42,535.24,Single-ply,SBD,M
Boys,125,6,Emiliano Hernandez,Eldorado,110.68,163.29,90.72,188.24,442.25,Single-ply,SBD,M
Boys,125+,1,Fred Enriquez,Rocksprings,150.14,254.01,124.74,215.46,594.21,Single-ply,SBD,M
Boys,125+,2,Taylor Elkins,Mertzon Irion County,136.35,215.46,140.61,188.24,544.31,Single-ply,SBD,M
Boys,125+,3,Brandon Jones,Odessa,157.85,215.46,120.2,165.56,501.22,Single-ply,SBD,M
Boys,125+,DQ,Brody Adams,Junction,134.99,176.9,,,,Single-ply,SBD,M
Boys,,DQ,JD Esquivel,Big Lake Reagan County,,,,,,Single-ply,SBD,M
Boys,,DQ,Aj Alonso,Big Lake Reagan County,,,,,,Single-ply,SBD,M
Boys,,DQ,Justin Ortiz,Big Lake Reagan County,,,,,,Single-ply,SBD,M
Boys,,DQ,Ty Perez,Sonora,,,,,,Single-ply,SBD,M
Boys,,DQ,Luis Romero,Rocksprings,,,,,,Single-ply,SBD,M
Boys,,DQ,Angel Cordova,Rocksprings,,,,,,Single-ply,SBD,M
Boys,,DQ,Jp Cordova,Rocksprings,,,,,,Single-ply,SBD,M
Boys,,DQ,Kraig Cadena,Eldorado,,,,,,Single-ply,SBD,M
Boys,,DQ,Blaine Aker,Eldorado,,,,,,Single-ply,SBD,M
