Name,Country,Sex,Equipment,Event,Division,BodyweightKg,Squat1Kg,Squat2Kg,Squat3Kg,Best3SquatKg,Bench1Kg,Bench2Kg,Bench3Kg,Best3BenchKg,Deadlift1Kg,Deadlift2Kg,Deadlift3Kg,Best3DeadliftKg,TotalKg,Place,BirthDay
Odell Manuel,Australia,M,Wraps,SBD,M-OR,156.7,420,450,460,460,250,260,265,265,390,-400,,390,1115,2,
Brandon Allen,USA,M,Wraps,SBD,M-OR,158.5,420,442.5,457.5,457.5,240,-257.5,257.5,257.5,365,387.5,-407.5,387.5,1102.5,3,1988-09-13
Eric Lilliebridge,USA,M,Wraps,SBD,M-OR,140.9,430,455,-480,455,227.5,240,,240,365,390,-410,390,1085,4,
Petr Petráš,Czechia,M,Wraps,SBD,M-OR,165.4,-425,450,-460,450,270,280,-285,280,370,390,-400,390,1120,1,
Dylan Hellriegel,Australia,M,Wraps,SBD,M-OR,161.7,410,425,435,435,220,230,,230,380,397.5,,397.5,1062.5,6,
Shawn Doyle,USA,M,Wraps,SBD,M-OR,157.4,405,430,,430,245,260,-270,260,-370,370,375,375,1065,5,
Vasa Samataua,Australia,M,Wraps,SBD,M-OR,156.4,400,420,-430,420,260,270,-277.5,270,320,340,-352.5,340,1030,7,
Luke Poli,Australia,M,Wraps,SBD,M-OR,164.2,390,-410,410,410,230,245,250,250,330,340,-350,340,1000,8,
Shannon Florissen,Australia,M,Wraps,SBD,M-OR,137.5,-370,-370,,,245,252.5,,252.5,,,,,,DQ,
